[
  {
  "nombre": "Carlos",
  "apellidos": "Casado",
  "telefono": "987654321"
  },
  {
    "nombre": "Daniel",
    "apellidos": "de Fuenmayor",
    "telefono": "5557878"
  },
  {
    "nombre": "Jorge",
    "apellidos": "González",
    "telefono": "123456789"
  }
]